{
    "@id": "http://schema.org/Event",
    "name": "Event",
    "description": "An event happening at a certain time and location, such as a concert, lecture, or festival. Ticketing information may be added via the offers property. Repeated events may be structured as separate Event objects.",
    "title": "Event",
    "abstract": false,
    "sealed": false,
    "inherits": "Thing",
    "version": "1.0",
    "fields": [
        {
            "@id": "http://schema.org/about",
            "name": "about",
            "title": "about",
            "description": "The subject matter of the content.",
            "type": "Thing"
        },
        {
            "@id": "http://schema.org/funder",
            "name": "funder",
            "title": "funder",
            "description": "A person or organization that supports (sponsors) something through some kind of financial contribution.",
            "type": "Person"
        },
        {
            "@id": "http://schema.org/sponsor",
            "name": "sponsor",
            "title": "sponsor",
            "description": "A person or organization that supports a thing through a pledge, promise, or financial contribution. e.g. a sponsor of a Medical Study or a corporate sponsor of an event.",
            "type": "Organization"
        },
        {
            "@id": "http://schema.org/subEvent",
            "name": "subEvent",
            "title": "subEvent",
            "description": "An Event that is part of this event. For example, a conference event includes many presentations, each of which is a subEvent of the conference.",
            "type": "Event"
        },
        {
            "@id": "http://schema.org/workFeatured",
            "name": "workFeatured",
            "title": "workFeatured",
            "description": "A work featured in some event, e.g. exhibited in an ExhibitionEvent.       Specific subproperties are available for workPerformed (e.g. a play), or a workPresented (a Movie at a ScreeningEvent).",
            "type": "CreativeWork"
        },
        {
            "@id": "http://schema.org/audience",
            "name": "audience",
            "title": "audience",
            "description": "An intended audience, i.e. a group for whom something was created.",
            "type": "Audience"
        },
        {
            "@id": "http://schema.org/remainingAttendeeCapacity",
            "name": "remainingAttendeeCapacity",
            "title": "remainingAttendeeCapacity",
            "description": "The number of attendee places for an event that remain unallocated.",
            "type": "Integer"
        },
        {
            "@id": "http://schema.org/actor",
            "name": "actor",
            "title": "actor",
            "description": "An actor, e.g. in tv, radio, movie, video games etc., or in an event. Actors can be associated with individual items or with a series, episode, clip.",
            "type": "Person"
        },
        {
            "@id": "http://schema.org/endDate",
            "name": "endDate",
            "title": "endDate",
            "description": "The end date and time of the item (in ISO 8601 date format).",
            "type": "Date"
        },
        {
            "@id": "http://schema.org/doorTime",
            "name": "doorTime",
            "title": "doorTime",
            "description": "The time admission will commence.",
            "type": "Time"
        },
        {
            "@id": "http://schema.org/contributor",
            "name": "contributor",
            "title": "contributor",
            "description": "A secondary contributor to the CreativeWork or Event.",
            "type": "Person"
        },
        {
            "@id": "http://schema.org/maximumAttendeeCapacity",
            "name": "maximumAttendeeCapacity",
            "title": "maximumAttendeeCapacity",
            "description": "The total number of individuals that may attend an event or venue.",
            "type": "Integer"
        },
        {
            "@id": "http://schema.org/typicalAgeRange",
            "name": "typicalAgeRange",
            "title": "typicalAgeRange",
            "description": "The typical expected age range, e.g. '7-9', '11-'.",
            "type": "Text"
        },
        {
            "@id": "http://schema.org/organizer",
            "name": "organizer",
            "title": "organizer",
            "description": "An organizer of an Event.",
            "type": "Person"
        },
        {
            "@id": "http://schema.org/aggregateRating",
            "name": "aggregateRating",
            "title": "aggregateRating",
            "description": "The overall rating, based on a collection of reviews or ratings, of the item.",
            "type": "AggregateRating"
        },
        {
            "@id": "http://schema.org/offers",
            "name": "offers",
            "title": "offers",
            "description": "An offer to provide this item—for example, an offer to sell a product, rent the DVD of a movie, perform a service, or give away tickets to an event. Use businessFunction to indicate the kind of transaction offered, i.e. sell, lease, etc. This property can also be used to describe a Demand. While this property is listed as expected on a number of common types, it can be used in others. In that case, using a second type, such as Product or a subtype of Product, can clarify the nature of the offer.",
            "type": "Demand"
        },
        {
            "@id": "http://schema.org/inLanguage",
            "name": "inLanguage",
            "title": "inLanguage",
            "description": "The language of the content or performance or used in an action. Please use one of the language codes from the IETF BCP 47 standard. See also availableLanguage.",
            "type": "Text"
        },
        {
            "@id": "http://schema.org/attendee",
            "name": "attendee",
            "title": "attendee",
            "description": "A person or organization attending the event.",
            "type": "Person"
        },
        {
            "@id": "http://schema.org/workPerformed",
            "name": "workPerformed",
            "title": "workPerformed",
            "description": "A work performed in some event, for example a play performed in a TheaterEvent.",
            "type": "CreativeWork"
        },
        {
            "@id": "http://schema.org/eventStatus",
            "name": "eventStatus",
            "title": "eventStatus",
            "description": "An eventStatus of an event represents its status; particularly useful when an event is cancelled or rescheduled.",
            "type": "EventStatusType"
        },
        {
            "@id": "http://schema.org/startDate",
            "name": "startDate",
            "title": "startDate",
            "description": "The start date and time of the item (in ISO 8601 date format).",
            "type": "DateTime"
        },
        {
            "@id": "http://schema.org/director",
            "name": "director",
            "title": "director",
            "description": "A director of e.g. tv, radio, movie, video gaming etc. content, or of an event. Directors can be associated with individual items or with a series, episode, clip.",
            "type": "Person"
        },
        {
            "@id": "http://schema.org/superEvent",
            "name": "superEvent",
            "title": "superEvent",
            "description": "An event that this event is a part of. For example, a collection of individual music performances might each have a music festival as their superEvent.",
            "type": "Event"
        },
        {
            "@id": "http://schema.org/duration",
            "name": "duration",
            "title": "duration",
            "description": "The duration of the item (movie, audio recording, event, etc.) in ISO 8601 date format.",
            "type": "Duration"
        },
        {
            "@id": "http://schema.org/translator",
            "name": "translator",
            "title": "translator",
            "description": "Organization or person who adapts a creative work to different languages, regional differences and technical requirements of a target market, or that translates during some event.",
            "type": "Organization"
        },
        {
            "@id": "http://schema.org/previousStartDate",
            "name": "previousStartDate",
            "title": "previousStartDate",
            "description": "Used in conjunction with eventStatus for rescheduled or cancelled events. This property contains the previously scheduled start date. For rescheduled events, the startDate property should be used for the newly scheduled start date. In the (rare) case of an event that has been postponed and rescheduled multiple times, this field may be repeated.",
            "type": "Date"
        },
        {
            "@id": "http://schema.org/review",
            "name": "review",
            "title": "review",
            "description": "A review of the item.",
            "type": "Review"
        },
        {
            "@id": "http://schema.org/location",
            "name": "location",
            "title": "location",
            "description": "The location of for example where the event is happening, an organization is located, or where an action takes place.",
            "type": "Place"
        },
        {
            "@id": "http://schema.org/recordedIn",
            "name": "recordedIn",
            "title": "recordedIn",
            "description": "The CreativeWork that captured all or part of this Event.",
            "type": "CreativeWork"
        },
        {
            "@id": "http://schema.org/composer",
            "name": "composer",
            "title": "composer",
            "description": "The person or organization who wrote a composition, or who is the composer of a work performed at some event.",
            "type": "Organization"
        },
        {
            "@id": "http://schema.org/isAccessibleForFree",
            "name": "isAccessibleForFree",
            "title": "isAccessibleForFree",
            "description": "A flag to signal that the item, event, or place is accessible for free.",
            "type": "Boolean"
        },
        {
            "@id": "http://schema.org/performer",
            "name": "performer",
            "title": "performer",
            "description": "A performer at the event—for example, a presenter, musician, musical group or actor.",
            "type": "Person"
        }
    ],
    "privileges": [
        {
            "mask": 15,
            "type": "global"
        },
        {
            "mask": 15,
            "type": "global",
            "account": "Administrators"
        }
    ]
}