{
    "@id": "https://themost.io/schemas/Party",
    "name": "Party",
    "description": "Party",
    "title": "Party",
    "abstract": false,
    "sealed": false,
    "inherits": "Thing",
    "version": "1.0",
    "fields": [],
    "privileges": [
        {
            "mask": 15,
            "type": "global"
        },
        {
            "mask": 15,
            "type": "global",
            "account": "Administrators"
        }
    ]
}